<?xml version="1.0" encoding="utf-8"?>
<!-- Generator: Adobe Illustrator 23.0.0, SVG Export Plug-In . SVG Version: 6.00 Build 0)  -->
<svg version="1.1" id="Layer_1" xmlns="http://www.w3.org/2000/svg" xmlns:xlink="http://www.w3.org/1999/xlink" x="0px" y="0px"
	 viewBox="0 0 24 24" style="enable-background:new 0 0 24 24;" xml:space="preserve">
<style type="text/css">
	.st0{fill:none;stroke:#000000;stroke-width:3;stroke-miterlimit:10;}
	.st1{fill:none;stroke:#000000;stroke-width:1.5;stroke-miterlimit:10;}
</style>
<circle class="st0" cx="11.9" cy="6" r="1"/>
<path d="M12.8,20H11c-0.6,0-1-0.4-1-1v-8c0-0.6,0.4-1,1-1h1.8c0.6,0,1,0.4,1,1v8C13.8,19.5,13.4,20,12.8,20z"/>
<circle class="st1" cx="11.9" cy="11.9" r="9.6"/>
</svg>
